{
    "_id": "xEl689kFeQ3HlmMO",
    "name": "Eldritch Effects",
    "img": "icons/svg/d20-grey.svg",
    "description": "",
    "results": [
        {
            "_id": "9RhS0ZEwCNPxEorB",
            "type": 0,
            "text": "The creature cannot speak or cast spells that have verbal components.",
            "weight": 1,
            "range": [
                1,
                1
            ],
            "drawn": false,
            "flags": {},
            "img": "icons/svg/d20-black.svg",
            "collection": null,
            "resultId": null,
            "rangeL": 1,
            "rangeH": 1
        },
        {
            "_id": "c6WRn2QfYKt8TnOT",
            "type": 0,
            "text": "The creature takes 1d8 psychic damage at the start of each of its turns.",
            "collection": null,
            "weight": 1,
            "range": [
                2,
                2
            ],
            "drawn": false,
            "flags": {},
            "img": "icons/svg/d20-black.svg",
            "resultId": null,
            "rangeL": 2,
            "rangeH": 2
        },
        {
            "_id": "rvVsWVSwsXYMp23q",
            "type": 0,
            "text": "The creature is disoriented. It immediately falls prone and falls prone again at the end of each turn it moves 5 feet or more.",
            "collection": null,
            "weight": 1,
            "range": [
                3,
                3
            ],
            "drawn": false,
            "flags": {},
            "img": "icons/svg/d20-black.svg",
            "resultId": null,
            "rangeL": 3,
            "rangeH": 3
        },
        {
            "_id": "VmcLdxolCI61jBFs",
            "type": 0,
            "text": "The creature is distracted by visions and voices and has disadvantage on attack rolls and Wisdom (Perception) ability checks.",
            "collection": null,
            "weight": 1,
            "range": [
                4,
                4
            ],
            "drawn": false,
            "flags": {},
            "img": "icons/svg/d20-black.svg",
            "resultId": null,
            "rangeL": 4,
            "rangeH": 4
        },
        {
            "_id": "0rnVqUdLugXQOY3s",
            "type": 0,
            "text": "The creature is unsure of itself. It can move or take an action on its turn but not both and it cannot use reactions.",
            "collection": null,
            "weight": 1,
            "range": [
                5,
                5
            ],
            "drawn": false,
            "flags": {},
            "img": "icons/svg/d20-black.svg",
            "resultId": null,
            "rangeL": 5,
            "rangeH": 5
        },
        {
            "_id": "jm90ZaNBWN9i1GET",
            "type": 0,
            "text": "The creature is reckless. It has advantage on attack rolls and attack rolls against it have advantage.",
            "collection": null,
            "weight": 1,
            "range": [
                6,
                6
            ],
            "drawn": false,
            "flags": {},
            "img": "icons/svg/d20-black.svg",
            "resultId": null,
            "rangeL": 6,
            "rangeH": 6
        },
        {
            "_id": "7MiDeg0ZgJm5fn90",
            "type": 0,
            "text": "The creature is deafened and cannot see objects or creatures further than 30 feet away.",
            "collection": null,
            "weight": 1,
            "range": [
                7,
                7
            ],
            "drawn": false,
            "flags": {},
            "img": "icons/svg/d20-black.svg",
            "resultId": null,
            "rangeL": 7,
            "rangeH": 7
        },
        {
            "_id": "aW7jNM5ZT4S3Q9hp",
            "type": 0,
            "text": "The creature is frightened of you.",
            "collection": null,
            "weight": 1,
            "range": [
                8,
                8
            ],
            "drawn": false,
            "flags": {},
            "img": "icons/svg/d20-black.svg",
            "resultId": null,
            "rangeL": 8,
            "rangeH": 8
        }
    ],
    "formula": "1d8",
    "replacement": true,
    "displayRoll": true,
    "folder": null,
    "sort": 0,
    "permission": {
        "default": 0
    },
    "flags": {}
}