{
    "_id": "MKVxajXy73f3Hi1C",
    "name": "Adventurer's Talent (Paladin)",
    "permission": {
      "default": 0
    },
    "type": "feat",
    "data": {
      "description": {
        "value": "<p>When you hit a creature with a melee weapon attack, you can expend one spell slot to deal radiant damage to the target, in addition to the weapon’s damage. The extra damage is 1d6 for a 1st-level spell slot, plus 1d6 for each spell level higher than 1st, to a maximum of 5d6. The damage increases by 1d6 if the target is an undead or a fiend, to a maximum of 6d6. You can do this a number of times equal to your proficiency bonus, and you regain all uses of this feature at the end of a long rest.</p>",
        "chat": "",
        "unidentified": ""
      },
      "source": "GH PG pg. 43",
      "activation": {
        "type": "special",
        "cost": 0,
        "condition": ""
      },
      "duration": {
        "value": null,
        "units": ""
      },
      "target": {
        "value": null,
        "units": "",
        "type": ""
      },
      "range": {
        "value": null,
        "long": null,
        "units": ""
      },
      "uses": {
        "value": 1,
        "max": "@attributes.prof",
        "per": "lr"
      },
      "consume": {
        "type": "",
        "target": null,
        "amount": null
      },
      "ability": null,
      "actionType": "",
      "attackBonus": 0,
      "chatFlavor": "",
      "critical": {
        "threshold": null,
        "damage": ""
      },
      "damage": {
        "parts": [],
        "versatile": ""
      },
      "formula": "",
      "save": {
        "ability": "",
        "dc": null,
        "scaling": "spell"
      },
      "requirements": "College of Adventurers 3",
      "recharge": {
        "value": null,
        "charged": false
      }
    },
    "flags": {},
    "img": "icons/skills/wounds/blood-spurt-spray-red.webp",
    "effects": []
  }
  