{
    "_id": "F27jIGkxjfZyn5sD",
    "name": "Bonus Proficiencies",
    "permission": {
      "default": 0
    },
    "type": "feat",
    "data": {
      "description": {
        "value": "<p>At 1st level, you gain proficiency with martial weapons and heavy armor.</p>",
        "chat": "",
        "unidentified": ""
      },
      "source": "GH PG pg. 47",
      "activation": {
        "type": "",
        "cost": 0,
        "condition": ""
      },
      "duration": {
        "value": null,
        "units": ""
      },
      "target": {
        "value": null,
        "units": "",
        "type": ""
      },
      "range": {
        "value": null,
        "long": null,
        "units": ""
      },
      "uses": {
        "value": 0,
        "max": 0,
        "per": null
      },
      "consume": {
        "type": "",
        "target": null,
        "amount": null
      },
      "ability": null,
      "actionType": "",
      "attackBonus": 0,
      "chatFlavor": "",
      "critical": {
        "threshold": null,
        "damage": ""
      },
      "damage": {
        "parts": [],
        "versatile": ""
      },
      "formula": "",
      "save": {
        "ability": "",
        "dc": null,
        "scaling": "spell"
      },
      "requirements": "Inquisition Domain 1",
      "recharge": {
        "value": null,
        "charged": false
      }
    },
    "flags": {},
    "img": "icons/skills/wounds/blood-spurt-spray-red.webp",
    "effects": [
        {
            "_id": "fpHdvtRrFsyTlE2t",
            "flags": {},
            "changes": [
              {
                "key": "data.traits.weaponProf.value",
                "mode": 2,
                "value": "mar"
              },
              {
                "key": "data.traits.armorProf.value",
                "mode": 2,
                "value": "heavy"
              }
            ],
            "disabled": false,
            "duration": {
                "value": null,
                "units": ""
              },
            "icon": "icons/creatures/abilities/mouth-teeth-human.webp",
            "label": "Bonus Proficiencies",
            "origin": "Item.F27jIGkxjfZyn5sD",
            "tint": "",
            "transfer": true
          }
    ]
  }
  