{
    "_id": "ej6WDBitxTFwGacz",
    "name": "Circle Spells",
    "permission": {
      "default": 0
    },
    "type": "feat",
    "data": {
      "description": {
        "value": "<p>At 3rd, 5th, 7th, and 9th level you gain access to the spells listed for that level in the Circle of Blood Spells table.</p><p>Once you gain access to one of these spells, you always have it prepared, and it doesn’t count against the number of spells you can prepare each day. If you gain access to a spell that doesn’t appear on the druid spell list, the spell is nonetheless a druid spell for you.</p><table border=\"0\" cellspacing=\"0\">\n<thead>\n<tr>\n<td>Level</td>\n<td>Spells</td>\n</thead>\n<tbody>\n<tr>\n<td>3rd</td>\n<td>hold person, sense lifeblood</td>\n</tr>\n<tr>\n<td>5th</td>\n<td>blood bond, sanguine poppet</td>\n</tr>\n<tr>\n<td>7th</td>\n<td>circle of scarlet, dark sacrament</td></tr>\n<tr>\n<td>9th</td>\n<td>dominate person, mortality</td><tr>\n</tbody>\n</table>",
        "chat": "",
        "unidentified": ""
      },
      "source": "GH PG pg. 48",
      "activation": {
        "type": "",
        "cost": 0,
        "condition": ""
      },
      "duration": {
        "value": null,
        "units": ""
      },
      "target": {
        "value": null,
        "units": "",
        "type": ""
      },
      "range": {
        "value": null,
        "long": null,
        "units": ""
      },
      "uses": {
        "value": 0,
        "max": 0,
        "per": null
      },
      "consume": {
        "type": "",
        "target": null,
        "amount": null
      },
      "ability": null,
      "actionType": "",
      "attackBonus": 0,
      "chatFlavor": "",
      "critical": {
        "threshold": null,
        "damage": ""
      },
      "damage": {
        "parts": [],
        "versatile": ""
      },
      "formula": "",
      "save": {
        "ability": "",
        "dc": null,
        "scaling": "spell"
      },
      "requirements": "Circle of Blood 2",
      "recharge": {
        "value": null,
        "charged": false
      }
    },
    "flags": {},
    "img": "icons/skills/wounds/blood-spurt-spray-red.webp",
    "effects": []
  }
  