{
    "_id": "42zWXoH2AXM7bmyH",
    "name": "Create Blood Elemental",
    "permission": {
      "default": 0
    },
    "type": "feat",
    "data": {
      "description": {
        "value": "<p>Starting at 14th level, when a creature you can see within 60 feet of you dies, you can use your reaction to fully exsanguinate its corpse, conjuring a <em>water elemental</em> composed of its blood and bound to your service.</p><p>Roll initiative for the elemental, which has its own turns. It obeys your verbal commands. The elemental remains in your service for 1 hour or until it is reduced to 0 hit points, at which point it collapses into a pool of blood.</p><p>Once you conjure an elemental with this feature, you can’t use the feature again until you finish a long rest.</p>",
        "chat": "",
        "unidentified": ""
      },
      "source": "GH PG pg. 48",
      "activation": {
        "type": "Reaction",
        "cost": 1,
        "condition": ""
      },
      "duration": {
        "value": null,
        "units": ""
      },
      "target": {
        "value": 1,
        "units": "",
        "type": "creature"
      },
      "range": {
        "value": 60,
        "long": null,
        "units": "ft"
      },
      "uses": {
        "value": 1,
        "max": 1,
        "per": "lr"
      },
      "consume": {
        "type": "",
        "target": null,
        "amount": null
      },
      "ability": null,
      "actionType": "",
      "attackBonus": 0,
      "chatFlavor": "",
      "critical": {
        "threshold": null,
        "damage": ""
      },
      "damage": {
        "parts": [],
        "versatile": ""
      },
      "formula": "",
      "save": {
        "ability": "",
        "dc": null,
        "scaling": "spell"
      },
      "requirements": "Circle of Blood 14",
      "recharge": {
        "value": null,
        "charged": false
      }
    },
    "flags": {},
    "img": "icons/skills/wounds/blood-spurt-spray-red.webp",
    "effects": []
  }
  