{
    "_id": "VljAZ8x0IkW1UPlW",
    "name": "Face of Rage",
    "permission": {
      "default": 0
    },
    "type": "feat",
    "data": {
      "description": {
        "value": "<p>Starting at 3rd level, when you enter your rage, your features distort and your body swells such that your appearance completely changes. Creatures who don’t witness your transformation and have not witnessed it in the past do not recognize you. In addition, while raging, you gain the following benefits if you aren’t wearing heavy armor:\n<ul>\n<li>You can roll a 1d8 in place of the normal damage of your unarmed strike, and your unarmed strikes count as magical for the purpose of overcoming resistance and immunity to nonmagical attacks and damage.</li>\n<li>When you use the attack action with an unarmed strike and are not wielding a shield, you can make one unarmed strike as a bonus action.</li>\n<li>You count as one size larger when determining who you can target and who can target you with grappling, and your reach with unarmed attacks increases to 10 feet.</li>\n</ul>",
        "chat": "",
        "unidentified": ""
      },
      "source": "GH PG pg. 39",
      "activation": {
        "type": "",
        "cost": 0,
        "condition": ""
      },
      "duration": {
        "value": null,
        "units": ""
      },
      "target": {
        "value": null,
        "units": "",
        "type": ""
      },
      "range": {
        "value": null,
        "long": null,
        "units": ""
      },
      "uses": {
        "value": 0,
        "max": 0,
        "per": null
      },
      "consume": {
        "type": "",
        "target": null,
        "amount": null
      },
      "ability": null,
      "actionType": "",
      "attackBonus": 0,
      "chatFlavor": "",
      "critical": {
        "threshold": null,
        "damage": ""
      },
      "damage": {
        "parts": [],
        "versatile": ""
      },
      "formula": "",
      "save": {
        "ability": "",
        "dc": null,
        "scaling": "spell"
      },
      "requirements": "Path of the Fractured 3",
      "recharge": {
        "value": null,
        "charged": false
      }
    },
    "flags": {},
    "img": "icons/magic/life/heart-shadow-red.webp",
    "effects": []
  }
  