{
    "_id": "YqNWobvzErfrhdP5",
    "name": "Mutation: Reduce",
    "permission": {
      "default": 0
    },
    "type": "feat",
    "data": {
      "description": {
        "value": "<p>For 1 mutation point, your size decreases by one step (from Medium to Small, for example). You can spend an additional 2 mutation points to decrease your size by two steps instead (from Medium to Tiny, for example).</p>",
        "chat": "",
        "unidentified": ""
      },
      "source": "GH PG pg. 50",
      "activation": {
        "type": "",
        "cost": 0,
        "condition": ""
      },
      "duration": {
        "value": null,
        "units": ""
      },
      "target": {
        "value": null,
        "units": "",
        "type": ""
      },
      "range": {
        "value": null,
        "long": null,
        "units": ""
      },
      "uses": {
        "value": null,
        "max": null,
        "per": ""
      },
      "consume": {
        "type": "",
        "target": null,
        "amount": null
      },
      "ability": null,
      "actionType": "",
      "attackBonus": 0,
      "chatFlavor": "",
      "critical": {
        "threshold": null,
        "damage": ""
      },
      "damage": {
        "parts": [],
        "versatile": ""
      },
      "formula": "",
      "save": {
        "ability": "",
        "dc": null,
        "scaling": "spell"
      },
      "requirements": "Circle of Mutation 2",
      "recharge": {
        "value": null,
        "charged": false
      }
    },
    "flags": {},
    "img": "icons/skills/wounds/blood-spurt-spray-red.webp",
    "effects": []
  }
  