{
    "_id": "dxWpCEwK8LKPUcbX",
    "name": "Pluck the Heartstrings",
    "permission": {
      "default": 0
    },
    "type": "feat",
    "data": {
      "description": {
        "value": "<p>Beginning at 3rd level, you gain the ability to use your Bardic Inspiration to pluck at the tethers of life within a creature. A creature with one of your Bardic Inspiration dice can expend it when dealing damage with a weapon attack, dealing additional necrotic damage equal to the die result.</p><p>Additionally, when a living creature that has your Bardic Inspiration die is reduced to 0 hit points, it can expend that die as a reaction to be reduced to 1 hit point instead.</p>",
        "chat": "",
        "unidentified": ""
      },
      "source": "GH PG pg. 44",
      "activation": {
        "type": "",
        "cost": 0,
        "condition": ""
      },
      "duration": {
        "value": null,
        "units": ""
      },
      "target": {
        "value": null,
        "units": "",
        "type": ""
      },
      "range": {
        "value": null,
        "long": null,
        "units": ""
      },
      "uses": {
        "value": 0,
        "max": 0,
        "per": ""
      },
      "consume": {
        "type": "",
        "target": null,
        "amount": null
      },
      "ability": null,
      "actionType": "",
      "attackBonus": 0,
      "chatFlavor": "",
      "critical": {
        "threshold": null,
        "damage": ""
      },
      "damage": {
        "parts": [],
        "versatile": ""
      },
      "formula": "",
      "save": {
        "ability": "",
        "dc": null,
        "scaling": "spell"
      },
      "requirements": "College of Requiems 3",
      "recharge": {
        "value": null,
        "charged": false
      }
    },
    "flags": {},
    "img": "icons/skills/wounds/blood-spurt-spray-red.webp",
    "effects": []
  }
