{
    "_id": "GotQcrSZ1wy1lUbJ",
    "name": "Primal Companion",
    "permission": {
      "default": 0
    },
    "type": "feat",
    "data": {
      "description": {
        "value": "<p>At 3rd level, you gain a primal companion, a spirit that accompanies you on your adventures and instinctively fights alongside you. Select either the Guardian or Striker, and one of land, sea, or sky. Its in game statistics found below, which uses your proficiency bonus (PB) in several places.</p><p>You determine your companion’s appearance; however, this does not affect its game statistics. Despite taking on a physical form, your primal companion does not need to breathe, eat, or sleep. You and your primal companion can communicate with one another telepathically while you are both on the same plane.As an action, you can temporarily dismiss your primal companion or summon it within 30 feet of you. In combat, your primal companion shares your initiative count, but it takes its turn immediately after yours. It can move and use its reaction on its own, but the only action it takes on its turn is the Dodge action, unless you use a bonus action on your turn to command it to take another action. That action can be one in its stat block or some other action. If you are incapacitated, your companion can take any action of its choice.</p><p>You can spend one minute per short rest caring for your primal companion. When you do, the spirit regains 2d6 hit points. Your primal companion regains all lost hit points at the end of a long rest. If your primal companion dies, the spirit manifests in a form of your choice the next time you finish a long rest</p>",
        "chat": "",
        "unidentified": ""
      },
      "source": "GH PG pg. 40",
      "activation": {
        "type": "",
        "cost": 0,
        "condition": ""
      },
      "duration": {
        "value": null,
        "units": ""
      },
      "target": {
        "value": null,
        "units": "",
        "type": ""
      },
      "range": {
        "value": null,
        "long": null,
        "units": ""
      },
      "uses": {
        "value": 0,
        "max": 0,
        "per": null
      },
      "consume": {
        "type": "",
        "target": null,
        "amount": null
      },
      "ability": null,
      "actionType": "",
      "attackBonus": 0,
      "chatFlavor": "",
      "critical": {
        "threshold": null,
        "damage": ""
      },
      "damage": {
        "parts": [],
        "versatile": ""
      },
      "formula": "",
      "save": {
        "ability": "",
        "dc": null,
        "scaling": "spell"
      },
      "requirements": "Path of the Primal Spirit 3",
      "recharge": {
        "value": null,
        "charged": false
      }
    },
    "flags": {},
    "img": "icons/magic/life/heart-shadow-red.webp",
    "effects": []
  }
  