{
    "_id": "GjZkyKiGVfnrCEIF",
    "name": "Stir the Bones",
    "permission": {
      "default": 0
    },
    "type": "feat",
    "data": {
      "description": {
        "value": "<p>At 6th level, you learn the animate dead spell. It counts as a bard spell for you, and it doesn’t count against the number of Bard spells you know.</p><p>When you give a creature one of your Bardic Inspiration dice, choose a number of undead creatures equal to your proficiency bonus under your control and within 60 feet of you. Chosen creatures each gain a Dirge die, which they lose if they do not spend within the next 10 minutes. Dirge dice can be spent the same way and under the same circumstances your Bardic Inspiration dice are. You can also issue mental commands to undead creatures under your control as part of the same bonus action.</p><p>When an undead creature you control expends a Dirge die on an attack roll that hits, it can also apply the result to the damage roll.</p>",
        "chat": "",
        "unidentified": ""
      },
      "source": "GH PG pg. 44",
      "activation": {
        "type": "",
        "cost": 0,
        "condition": ""
      },
      "duration": {
        "value": null,
        "units": ""
      },
      "target": {
        "value": null,
        "units": "",
        "type": ""
      },
      "range": {
        "value": null,
        "long": null,
        "units": ""
      },
      "uses": {
        "value": 0,
        "max": 0,
        "per": ""
      },
      "consume": {
        "type": "",
        "target": null,
        "amount": null
      },
      "ability": null,
      "actionType": "",
      "attackBonus": 0,
      "chatFlavor": "",
      "critical": {
        "threshold": null,
        "damage": ""
      },
      "damage": {
        "parts": [],
        "versatile": ""
      },
      "formula": "",
      "save": {
        "ability": "",
        "dc": null,
        "scaling": "spell"
      },
      "requirements": "College of Requiems 6",
      "recharge": {
        "value": null,
        "charged": false
      }
    },
    "flags": {},
    "img": "icons/skills/wounds/blood-spurt-spray-red.webp",
    "effects": []
  }
