{
    "_id": "mO2Nk3Su8BDHWAnw",
    "name": "Unpredictable Inpsiration",
    "permission": {
      "default": 0
    },
    "type": "feat",
    "data": {
      "description": {
        "value": "<p>At 1st level, choose any cantrip. The chosen cantrip counts as a cleric spell for you but does not count against the number of cleric cantrips you know. Each time you finish a long rest you can replace the chosen cantrip with any other cantrip of your choice.</p><p>In addition, you gain proficiency in a skill of your choice. Each time you finish a long rest you can replace the chosen skill with another skill of your choice.</p>",
        "chat": "",
        "unidentified": ""
      },
      "source": "GH PG pg. 46",
      "activation": {
        "type": "",
        "cost": 0,
        "condition": ""
      },
      "duration": {
        "value": null,
        "units": ""
      },
      "target": {
        "value": null,
        "units": "",
        "type": ""
      },
      "range": {
        "value": null,
        "long": null,
        "units": ""
      },
      "uses": {
        "value": 0,
        "max": 0,
        "per": null
      },
      "consume": {
        "type": "",
        "target": null,
        "amount": null
      },
      "ability": null,
      "actionType": "",
      "attackBonus": 0,
      "chatFlavor": "",
      "critical": {
        "threshold": null,
        "damage": ""
      },
      "damage": {
        "parts": [],
        "versatile": ""
      },
      "formula": "",
      "save": {
        "ability": "",
        "dc": null,
        "scaling": "spell"
      },
      "requirements": "Eldritch Domain 1",
      "recharge": {
        "value": null,
        "charged": false
      }
    },
    "flags": {},
    "img": "icons/skills/wounds/blood-spurt-spray-red.webp",
    "effects": []
  }
  